Food Service Workers
…
By state:

By metro area: 

Theres an irony here to Ocean City having the most bartenders given its a dry city - there are no bars. But of course this is the MSA which extends around it and to the south.

Next up: Earnings power lost

If we multiply the average annual earnings for each occupation by the number of employed people in that profession - both of which the BLS data includes - that should give us an estimated dollar value we can peg to the lost potential earnings were talking about.

Lets give that a try.

To keep things a bit more simple to start, lets do this with the national figures for all of the United States.

## # A tibble: 26 x 7
##    data_scope occ_code occ_title                 occ_group tot_emp h_mean a_mean
##    <chr>      <chr>    <chr>                     <chr>       <dbl>  <dbl>  <dbl>
##  1 national   35-0000  Food Preparation and Ser major      1.34e7   12.3  25580
##  2 national   35-1000  Supervisors of Food Prep minor      1.09e6   18.3  38070
##  3 national   35-1011  Chefs and Head Cooks      detailed   1.29e5   25.1  52160
##  4 national   35-1012  First-Line Supervisors o detailed   9.64e5   17.4  36190
##  5 national   35-2000  Cooks and Food Preparati minor      3.22e6   12.6  26120
##  6 national   35-2010  Cooks                     broad      2.40e6   12.8  26560
##  7 national   35-2011  Cooks, Fast Food          detailed   4.88e5   10.9  22650
##  8 national   35-2012  Cooks, Institution and C detailed   4.00e5   13.6  28290
##  9 national   35-2013  Cooks, Private Household  detailed   4.60e2   19.8  41240
## 10 national   35-2014  Cooks, Restaurant         detailed   1.34e6   13.3  27580
## #  with 16 more rows
…
